%YAML 1.1
%TAG !u! tag:unity3d.com,2011:
--- !u!162 &1
EditorUserSettings:
  m_ObjectHideFlags: 0
  serializedVersion: 4
  m_ConfigSettings:
    RecentlyUsedScenePath-0:
      value: 224247031146467d181c022b04364d15593614266c25293428250e7df7ee3d2cfb
      flags: 0
    RecentlyUsedScenePath-1:
      value: 224247031146467d010103261527603704180d24283b69032e2c1336f1af073be7e933d6c6742a323016f6
      flags: 0
    RecentlyUsedScenePath-2:
      value: 224247031146467d010103261527603704180d24283b69032e2c1336f1af042ae7c625ecea383a303d3dcd290d320536fc0d1a45e305031f08
      flags: 0
    RecentlyUsedScenePath-3:
      value: 22424703114646680e0b0227036c6c111b07142f1f2b233e2867083debf42d
      flags: 0
    vcSharedLogLevel:
      value: 0d5e400f0650
      flags: 0
  m_VCAutomaticAdd: 1
  m_VCDebugCom: 0
  m_VCDebugCmd: 0
  m_VCDebugOut: 0
  m_SemanticMergeMode: 2
  m_VCShowFailedCheckout: 1
  m_VCOverwriteFailedCheckoutAssets: 1
  m_VCProjectOverlayIcons: 1
  m_VCHierarchyOverlayIcons: 1
  m_VCOtherOverlayIcons: 1
  m_VCAllowAsyncUpdate: 1
